{
  // Use IntelliSense to learn about possible attributes.
  // Hover to view descriptions of existing attributes.
  "version": "0.2.0",
  "configurations": [
      {
          "type": "gdb",
          "request": "launch",
          "name": "Compile & Run current file",
          "target": "${fileBasenameNoExtension}",
          "cwd": "${workspaceRoot}",
          "valuesFormatting": "parseText",
          "preLaunchTask": "make active file"
      }
    ]
}
